tests/mbed_softs/hal_usart/usart2blocking/LOG/usart2-testerUsartTrace.vcd
$date
     Jan 25, 2018       19:38:24
$end

$version
 SystemC 2.3.1-Accellera --- Oct 10 2017 08:46:00
$end

$timescale
     1 ns
$end

$scope module SystemC $end
$var wire    1  aaaaa  TX       $end
$var wire    1  aaaab  RX       $end
$var wire    1  aaaac  SCLK       $end
$upscope $end
$enddefinitions  $end

$comment
All initial values are dumped below at time 0 sec = 0 timescale units.
$end

$dumpvars
1aaaaa
1aaaab
0aaaac
$end

#12695218
1aaaac

#15932894
0aaaab

#16037222
1aaaab

#16089386
0aaaac

#16141550
0aaaab
1aaaac

#16193714
0aaaac

#16245878
1aaaac

#16298042
0aaaac

#16350206
1aaaac

#16402370
0aaaac

#16454534
1aaaac

#16506698
0aaaac

#16558862
1aaaab
1aaaac

#16611026
0aaaac

#16663190
1aaaac

#16715354
0aaaac

#16767518
0aaaab
1aaaac

#16819682
0aaaac

#16871846
1aaaab
1aaaac

#17080502
0aaaab

#17236994
0aaaac

#17289158
1aaaab
1aaaac

#17341322
0aaaac

#17393486
0aaaab
1aaaac

#17445650
0aaaac

#17497814
1aaaac

#17549978
0aaaac

#17602142
1aaaac

#17654306
0aaaac

#17706470
1aaaab
1aaaac

#17758634
0aaaac

#17810798
1aaaac

#17862962
0aaaac

#17915126
0aaaab
1aaaac

#17967290
0aaaac

#18019454
1aaaab
1aaaac

#36136748
0aaaab

#36241076
1aaaab

#36293240
0aaaac

#36345404
1aaaac

#36397568
0aaaac

#36449732
0aaaab
1aaaac

#36501896
0aaaac

#36554060
1aaaac

#36606224
0aaaac

#36658388
1aaaac

#36710552
0aaaac

#36762716
1aaaab
1aaaac

#36814880
0aaaac

#36867044
1aaaac

#36919208
0aaaac

#36971372
0aaaab
1aaaac

#37023536
0aaaac

#37075700
1aaaab
1aaaac

