tests/mbed_softs/hal_usart/multiUsartBlocking/LOG/usart1-testerUsartTrace.vcd
$date
     Jan 25, 2018       19:38:24
$end

$version
 SystemC 2.3.1-Accellera --- Oct 10 2017 08:46:00
$end

$timescale
     1 ns
$end

$scope module SystemC $end
$var wire    1  aaaaa  TX       $end
$var wire    1  aaaab  RX       $end
$var wire    1  aaaac  SCLK       $end
$upscope $end
$enddefinitions  $end

$comment
All initial values are dumped below at time 0 sec = 0 timescale units.
$end

$dumpvars
1aaaaa
1aaaab
0aaaac
$end

#93056545
0aaaab

#93160681
1aaaac

#93212749
0aaaac

#93264817
1aaaac

#93316885
0aaaac

#93368953
1aaaab
1aaaac

#93421021
0aaaac

#93473089
0aaaab
1aaaac

#93525157
0aaaac

#93577225
1aaaac

#93629293
0aaaac

#93681361
1aaaab
1aaaac

#93733429
0aaaac

#93785497
1aaaac

#93837565
0aaaac

#93889633
0aaaab
1aaaac

#93941701
0aaaac

#93993769
1aaaab

#94097905
0aaaab

#94202041
1aaaab
1aaaac

#94254109
0aaaac

#94306177
0aaaab
1aaaac

#94358245
0aaaac

#94410313
1aaaab
1aaaac

#94462381
0aaaac

#94514449
0aaaab
1aaaac

#94566517
0aaaac

#94618585
1aaaac

#94670653
0aaaac

#94722721
1aaaab
1aaaac

#94774789
0aaaac

#94826857
1aaaac

#94878925
0aaaac

#94930993
0aaaab
1aaaac

#94983061
0aaaac

#95035129
1aaaab

#152479506
0aaaab

#152583642
1aaaac

#152635710
0aaaac

#152687778
1aaaab
1aaaac

#152739846
0aaaac

#152791914
1aaaac

#152843982
0aaaac

#152896050
0aaaab
1aaaac

#152948118
0aaaac

#153000186
1aaaac

#153052254
0aaaac

#153104322
1aaaab
1aaaac

#153156390
0aaaac

#153208458
1aaaac

#153260526
0aaaac

#153312594
0aaaab
1aaaac

#153364662
0aaaac

#153416730
1aaaab

