tests/mbed_softs/hal_usart/usart2Receive/LOG/usart2-testerUsartTrace.vcd
$date
     Jan 31, 2018       13:24:57
$end

$version
 SystemC 2.3.1-Accellera --- Oct 10 2017 08:46:00
$end

$timescale
     1 ns
$end

$scope module SystemC $end
$var wire    1  aaaaa  TX       $end
$var wire    1  aaaab  RX       $end
$var wire    1  aaaac  SCLK       $end
$upscope $end
$enddefinitions  $end

$comment
All initial values are dumped below at time 0 sec = 0 timescale units.
$end

$dumpvars
1aaaaa
1aaaab
0aaaac
$end

#12108437
0aaaab

#12212765
1aaaab
1aaaac

#12264929
0aaaac

#12317093
1aaaac

#12369257
0aaaac

#12421421
1aaaac

#12473585
0aaaac

#12525749
1aaaac

#12577913
0aaaac

#12630077
1aaaac

#12682241
0aaaac

#12734405
1aaaac

#12786569
0aaaac

#12838733
1aaaac

#12890897
0aaaac

#1001043280
0aaaaa

#1001982232
1aaaaa

#1002190888
0aaaaa

#1002295216
1aaaaa

#1002399544
0aaaaa

#1003129840
1aaaaa

#1003338496
0aaaaa

#1003547152
1aaaaa

#1003651480
0aaaaa

#1004277448
1aaaaa

#1004486104
0aaaaa

#1004590432
1aaaaa

#1004799088
0aaaaa

#1005425056
1aaaaa

#1005633712
0aaaaa

#1005946696
1aaaaa

#1006051024
0aaaaa

#1006572664
1aaaaa

#1006781320
0aaaaa

#1006885648
1aaaaa

#1006989976
0aaaaa

#1007094304
1aaaaa

#1007198632
0aaaaa

#1007720272
1aaaaa

#1007928928
0aaaaa

#1008137584
1aaaaa

#1008346240
0aaaaa

#1008867880
1aaaaa

#1009076536
0aaaaa

#1009180864
1aaaaa

#1009493848
0aaaaa

#1010015488
1aaaaa

#1010224144
0aaaaa

#1010641456
1aaaaa

#1010745784
0aaaaa

#1011163096
1aaaaa

#1011371752
0aaaaa

#1011476080
1aaaaa

#1011580408
0aaaaa

#1011789064
1aaaaa

#1011893392
0aaaaa

#1012310704
1aaaaa

#1012519360
0aaaaa

#1012728016
1aaaaa

#1012832344
0aaaaa

#1012936672
1aaaaa

#1013041000
0aaaaa

#1013458312
1aaaaa

#1013666968
0aaaaa

#1013771296
1aaaaa

#1013979952
0aaaaa

#1014084280
1aaaaa

#1014188608
0aaaaa

#1014605920
1aaaaa

#1014814576
0aaaaa

#1015127560
1aaaaa

#1015336216
0aaaaa

#1015753528
1aaaaa

#1015962184
0aaaaa

#1016066512
1aaaaa

#1016170840
0aaaaa

#1016275168
1aaaaa

#1016483824
0aaaaa

#1016901136
1aaaaa

#1017109792
0aaaaa

#1017318448
1aaaaa

#1017631432
0aaaaa

#1018048744
1aaaaa

#1018257400
0aaaaa

#1018361728
1aaaaa

#1018779040
0aaaaa

#1019196352
1aaaaa

#1019405008
0aaaaa

#1019926648
1aaaaa

#1020030976
0aaaaa

#1020343960
1aaaaa

#1020552616
0aaaaa

#1020656944
1aaaaa

#1020761272
0aaaaa

#1021074256
1aaaaa

#1021178584
0aaaaa

#1021491568
1aaaaa

#1021700224
0aaaaa

#1021908880
1aaaaa

#1022013208
0aaaaa

#1022221864
1aaaaa

#1022326192
0aaaaa

#1022639176
1aaaaa

#1022847832
0aaaaa

#1022952160
1aaaaa

#1023160816
0aaaaa

#1023369472
1aaaaa

#1023473800
0aaaaa

#1023786784
1aaaaa

#1023995440
0aaaaa

#1024308424
1aaaaa

#1024412752
0aaaaa

#1024517080
1aaaaa

#1024621408
0aaaaa

#1024934392
1aaaaa

#1025143048
0aaaaa

#1025247376
1aaaaa

#1025351704
0aaaaa

#1025456032
1aaaaa

#1025560360
0aaaaa

#1025664688
1aaaaa

#1025769016
0aaaaa

#1026082000
1aaaaa

#1026290656
0aaaaa

#1026499312
1aaaaa

#1026707968
0aaaaa

#1026812296
1aaaaa

#1026916624
0aaaaa

#1027229608
1aaaaa

#1027438264
0aaaaa

#1027542592
1aaaaa

#1027855576
0aaaaa

#1027959904
1aaaaa

#1028064232
0aaaaa

#1028377216
1aaaaa

#1028585872
0aaaaa

#1029003184
1aaaaa

#1029211840
0aaaaa

#1029524824
1aaaaa

#1029733480
0aaaaa

#1029837808
1aaaaa

#1029942136
0aaaaa

#1030150792
1aaaaa

#1030359448
0aaaaa

#1030672432
1aaaaa

#1030881088
0aaaaa

#1031089744
1aaaaa

#1031194072
0aaaaa

#1031298400
1aaaaa

#1031507056
0aaaaa

#1031820040
1aaaaa

#1032028696
0aaaaa

#1032133024
1aaaaa

#1032341680
0aaaaa

#1032446008
1aaaaa

#1032654664
0aaaaa

#1032967648
1aaaaa

#1033176304
0aaaaa

#1033489288
1aaaaa

#1033802272
0aaaaa

#1034115256
1aaaaa

#1034323912
0aaaaa

#1034428240
1aaaaa

#1034532568
0aaaaa

#1034636896
1aaaaa

#1034949880
0aaaaa

#1035262864
1aaaaa

#1035471520
0aaaaa

#1035680176
1aaaaa

#1036097488
0aaaaa

#1036410472
1aaaaa

#1036619128
0aaaaa

#1036723456
1aaaaa

#1037245096
0aaaaa

#1037558080
1aaaaa

#1037766736
0aaaaa

#1038392704
1aaaaa

#1038497032
0aaaaa

#1038705688
1aaaaa

#1038914344
0aaaaa

#1039018672
1aaaaa

#1039123000
0aaaaa

#1039540312
1aaaaa

#1039644640
0aaaaa

#1039853296
1aaaaa

#1040061952
0aaaaa

#1040270608
1aaaaa

#1040374936
0aaaaa

#1040500715
0aaaab

#1040605043
1aaaab
1aaaac

#1040657207
0aaaac

#1040687920
1aaaaa

#1040709371
1aaaac

#1040761535
0aaaac

#1040792248
0aaaaa

#1040813699
1aaaac

#1040865863
0aaaac

#1040918027
1aaaac

#1040970191
0aaaac

#1041000904
1aaaaa

#1041022355
1aaaac

#1041074519
0aaaac

#1041126683
1aaaac

#1041178847
0aaaac

#1041209560
0aaaaa

#1041231011
1aaaac

#1041283175
0aaaac

#1041313888
1aaaaa

#1041522544
0aaaaa

#1041835528
1aaaaa

#1041939856
0aaaaa

#1042148512
1aaaaa

#1042357168
0aaaaa

#1042670152
1aaaaa

#1042774480
0aaaaa

#1042983136
1aaaaa

#1043087464
0aaaaa

#1043296120
1aaaaa

#1043504776
0aaaaa

#1043609104
1aaaaa

#1043713432
0aaaaa

#1043817760
1aaaaa

#1043922088
0aaaaa

#1044130744
1aaaaa

#1044235072
0aaaaa

#1044443728
1aaaaa

#1044652384
0aaaaa

#1044861040
1aaaaa

#1045069696
0aaaaa

#1045152291
0aaaab

#1045256619
1aaaab
1aaaac

#1045278352
1aaaaa

#1045308783
0aaaac

#1045360947
1aaaac

#1045382680
0aaaaa

#1045413111
0aaaac

#1045465275
1aaaac

#1045517439
0aaaac

#1045569603
1aaaac

#1045591336
1aaaaa

#1045621767
0aaaac

#1045673931
1aaaac

#1045726095
0aaaac

#1045778259
1aaaac

#1045799992
0aaaaa

#1045830423
0aaaac

#1045882587
1aaaac

#1045904320
1aaaaa

#1045934751
0aaaac

#1046217304
0aaaaa

#1046425960
1aaaaa

#1046530288
0aaaaa

#1046738944
1aaaaa

#1046947600
0aaaaa

#1047364912
1aaaaa

#1047469240
0aaaaa

#1047573568
1aaaaa

#1047677896
0aaaaa

#1047886552
1aaaaa

#1048095208
0aaaaa

#1048199536
1aaaaa

#1048303864
0aaaaa

#1048512520
1aaaaa

#1048616848
0aaaaa

#1048721176
1aaaaa

#1048825504
0aaaaa

#1049034160
1aaaaa

#1049242816
0aaaaa

#1049451472
1aaaaa

#1049555800
0aaaaa

#1049660128
1aaaaa

#1049764456
0aaaaa

#1049868784
1aaaaa

#1049973112
0aaaaa

#1050181768
1aaaaa

#1050390424
0aaaaa

#1050494752
1aaaaa

#1050703408
0aaaaa

#1050807736
1aaaaa

#1050912064
0aaaaa

#1051016392
1aaaaa

#1051120720
0aaaaa

#1051329376
1aaaaa

#1051538032
0aaaaa

#1051851016
1aaaaa

#1052059672
0aaaaa

#1052164000
1aaaaa

#1052268328
0aaaaa

#1052476984
1aaaaa

#1052685640
0aaaaa

#1052789968
1aaaaa

#1052894296
0aaaaa

#1052998624
1aaaaa

#1053207280
0aaaaa

#1053311608
1aaaaa

#1053415936
0aaaaa

#1053624592
1aaaaa

#1053833248
0aaaaa

#1054041904
1aaaaa

#1054354888
0aaaaa

#1054459216
1aaaaa

#1054563544
0aaaaa

#1054772200
1aaaaa

#1054980856
0aaaaa

#1055085184
1aaaaa

#1055502496
0aaaaa

#1055606824
1aaaaa

#1055711152
0aaaaa

#1055919808
1aaaaa

#1056128464
0aaaaa

#1056650104
1aaaaa

#1056858760
0aaaaa

#1057067416
1aaaaa

#1057276072
0aaaaa

#1057380400
1aaaaa

#1057484728
0aaaaa

#1057797712
1aaaaa

#1058006368
0aaaaa

#1058215024
1aaaaa

#1058423680
0aaaaa

#1058632336
1aaaaa

#1058736664
0aaaaa

#1058945320
1aaaaa

#1059153976
0aaaaa

#1059362632
1aaaaa

#1059571288
0aaaaa

#1059675616
1aaaaa

#1059884272
0aaaaa

#1060092928
1aaaaa

#1060301584
0aaaaa

#1060510240
1aaaaa

#1060718896
0aaaaa

#1061031880
1aaaaa

#1061136208
0aaaaa

#1061240536
1aaaaa

#1061449192
0aaaaa

#1061657848
1aaaaa

#1061866504
0aaaaa

#1061970832
1aaaaa

#1062075160
0aaaaa

#1062179488
1aaaaa

#1062283816
0aaaaa

#1062388144
1aaaaa

#1062596800
0aaaaa

#1062805456
1aaaaa

#1063014112
0aaaaa

#1063222768
1aaaaa

#1063431424
0aaaaa

#1063535752
1aaaaa

#1063744408
0aaaaa

#1063953064
1aaaaa

#1064161720
0aaaaa

#1064266048
1aaaaa

#1064579032
0aaaaa

#1064683360
1aaaaa

#1064892016
0aaaaa

#1065100672
1aaaaa

#1065309328
0aaaaa

#1065726640
1aaaaa

#1066039624
0aaaaa

#1066248280
1aaaaa

#1066456936
0aaaaa

#1066561264
1aaaaa

#1066665592
0aaaaa

#1066874248
1aaaaa

#1067187232
0aaaaa

#1067395888
1aaaaa

#1067604544
0aaaaa

#1067813200
1aaaaa

#1067917528
0aaaaa

#1068021856
1aaaaa

#1068334840
0aaaaa

#1068543496
1aaaaa

#1068752152
0aaaaa

#1068856480
1aaaaa

#1069065136
0aaaaa

#1069169464
1aaaaa

#1069482448
0aaaaa

#1069691104
1aaaaa

#1069899760
0aaaaa

#1070212744
1aaaaa

#1070630056
0aaaaa

#1070838712
1aaaaa

#1071047368
0aaaaa

#1071151696
1aaaaa

#1071256024
0aaaaa

#1071360352
1aaaaa

#1071777664
0aaaaa

#1071986320
1aaaaa

#1072194976
0aaaaa

#1072403632
1aaaaa

#1072925272
0aaaaa

#1073133928
1aaaaa

#1073342584
0aaaaa

#1073446912
1aaaaa

#1074072880
0aaaaa

#1074281536
1aaaaa

#1074490192
0aaaaa

#1075220488
1aaaaa

#1075324816
0aaaaa

#1075429144
1aaaaa

#1075637800
0aaaaa

#1075742128
1aaaaa

#1075846456
0aaaaa

#1076368096
1aaaaa

#1076472424
0aaaaa

#1076576752
1aaaaa

#1076785408
0aaaaa

#1076994064
1aaaaa

#1077098392
0aaaaa

#1077515704
1aaaaa

#1077620032
0aaaaa

#1077724360
1aaaaa

#1077933016
0aaaaa

#1078037344
1aaaaa

#1078246000
0aaaaa

#1078663312
1aaaaa

#1078767640
0aaaaa

#1078871968
1aaaaa

#1079080624
0aaaaa

#1079393608
1aaaaa

#1079497936
0aaaaa

#1079810920
1aaaaa

#1079915248
0aaaaa

#1080019576
1aaaaa

#1080228232
0aaaaa

#1080332560
1aaaaa

#1080436888
0aaaaa

#1080541216
1aaaaa

#1080645544
0aaaaa

#1080958528
1aaaaa

#1081062856
0aaaaa

#1081167184
1aaaaa

#1081375840
0aaaaa

#1081584496
1aaaaa

#1081793152
0aaaaa

#1082106136
1aaaaa

#1082210464
0aaaaa

#1082314792
1aaaaa

#1082523448
0aaaaa

#1082627776
1aaaaa

#1082940760
0aaaaa

#1083253744
1aaaaa

#1083358072
0aaaaa

#1083462400
1aaaaa

#1083671056
0aaaaa

#1084088368
1aaaaa

#1084192696
0aaaaa

#1084401352
1aaaaa

#1084505680
0aaaaa

#1084610008
1aaaaa

#1084818664
0aaaaa

#1084922992
1aaaaa

#1085027320
0aaaaa

#1085235976
1aaaaa

#1085340304
0aaaaa

#1085548960
1aaaaa

#1085653288
0aaaaa

#1085757616
1aaaaa

#1085966272
0aaaaa

#1086174928
1aaaaa

#1086279256
0aaaaa

#1086383584
1aaaaa

#1086487912
0aaaaa

#1086696568
1aaaaa

#1086800896
0aaaaa

#1086905224
1aaaaa

#1087113880
0aaaaa

#1087218208
1aaaaa

#1087426864
0aaaaa

#1087531192
1aaaaa

#1087635520
0aaaaa

#1087844176
1aaaaa

#1087948504
0aaaaa

#1088052832
1aaaaa

#1088261488
0aaaaa

#1088574472
1aaaaa

#1088783128
0aaaaa

#1088991784
1aaaaa

#1089096112
0aaaaa

#1089200440
1aaaaa

#1089409096
0aaaaa

#1089513424
1aaaaa

#1089617752
0aaaaa

#1089722080
1aaaaa

#1089930736
0aaaaa

#1090139392
1aaaaa

#1090243720
0aaaaa

#1090348048
1aaaaa

#1090556704
0aaaaa

#1090765360
1aaaaa

#1091078344
0aaaaa

#1091287000
1aaaaa

#1091391328
0aaaaa

#1091495656
1aaaaa

#1091704312
0aaaaa

#1091808640
1aaaaa

#1092225952
0aaaaa

#1092434608
1aaaaa

#1092538936
0aaaaa

#1092643264
1aaaaa

#1092851920
0aaaaa

#1093373560
1aaaaa

#1093477888
0aaaaa

#1093582216
1aaaaa

#1093686544
0aaaaa

#1093790872
1aaaaa

#1093999528
0aaaaa

#1094103856
1aaaaa

#1094208184
0aaaaa

#1094521168
1aaaaa

#1094625496
0aaaaa

#1094729824
1aaaaa

#1094834152
0aaaaa

#1094938480
1aaaaa

#1095147136
0aaaaa

#1095355792
1aaaaa

#1095460120
0aaaaa

#1095668776
1aaaaa

#1095773104
0aaaaa

#1095877432
1aaaaa

#1095981760
0aaaaa

#1096086088
1aaaaa

#1096294744
0aaaaa

#1096399072
1aaaaa

#1096607728
0aaaaa

#1096816384
1aaaaa

#1096920712
0aaaaa

#1097025040
1aaaaa

#1097129368
0aaaaa

#1097233696
1aaaaa

#1097442352
0aaaaa

#1097755336
1aaaaa

#1097859664
0aaaaa

#1097963992
1aaaaa

#1098068320
0aaaaa

#1098172648
1aaaaa

#1098276976
0aaaaa

#1098381304
1aaaaa

#1098589960
0aaaaa

#1098694288
1aaaaa

#1098798616
0aaaaa

#1098902944
1aaaaa

#1099007272
0aaaaa

#1099111600
1aaaaa

#1099215928
0aaaaa

#1099320256
1aaaaa

#1099424584
0aaaaa

#1099528912
1aaaaa

#1099737568
0aaaaa

#1099946224
1aaaaa

#1100154880
0aaaaa

#1100259208
1aaaaa

#1100363536
0aaaaa

#1100467864
1aaaaa

#1100572192
0aaaaa

#1100676520
1aaaaa

#1100885176
0aaaaa

#1100989504
1aaaaa

#1101302488
0aaaaa

#1101406816
1aaaaa

#1101511144
0aaaaa

#1101615472
1aaaaa

#1101719800
0aaaaa

#1101824128
1aaaaa

#1102032784
0aaaaa

#1102450096
1aaaaa

#1102658752
0aaaaa

#1102763080
1aaaaa

#1102867408
0aaaaa

#1102971736
1aaaaa

#1103180392
0aaaaa

#1103284720
1aaaaa

#1103389048
0aaaaa

#1103597704
1aaaaa

#1103806360
0aaaaa

#1103910688
1aaaaa

#1104015016
0aaaaa

#1104119344
1aaaaa

#1104328000
0aaaaa

#1104536656
1aaaaa

#1104640984
0aaaaa

#1104745312
1aaaaa

#1104953968
0aaaaa

#1105058296
1aaaaa

#1105162624
0aaaaa

#1105266952
1aaaaa

#1105475608
0aaaaa

#1105579936
1aaaaa

#1105788592
0aaaaa

#1105892920
1aaaaa

#1106101576
0aaaaa

#1106205904
1aaaaa

#1106310232
0aaaaa

#1106414560
1aaaaa

#1106623216
0aaaaa

#1106936200
1aaaaa

#1107249184
0aaaaa

#1107353512
1aaaaa

#1107457840
0aaaaa

#1107562168
1aaaaa

#1107770824
0aaaaa

#1107875152
1aaaaa

#1107979480
0aaaaa

#1108083808
1aaaaa

#1108396792
0aaaaa

#1108501120
1aaaaa

#1108605448
0aaaaa

#1108709776
1aaaaa

#1108918432
0aaaaa

#1109127088
1aaaaa

#1109544400
0aaaaa

#1109648728
1aaaaa

#1109753056
0aaaaa

#1109857384
1aaaaa

#1110066040
0aaaaa

#1110170368
1aaaaa

#1110692008
0aaaaa

#1110796336
1aaaaa

#1110900664
0aaaaa

#1111004992
1aaaaa

#1111213648
0aaaaa

#1111839616
1aaaaa

#1112048272
0aaaaa

#1112152600
1aaaaa

#1112361256
0aaaaa

#1112465584
1aaaaa

#1112569912
0aaaaa

#1112987224
1aaaaa

#1113195880
0aaaaa

#1113300208
1aaaaa

#1113508864
0aaaaa

#1113717520
1aaaaa

#1113821848
0aaaaa

#1114134832
1aaaaa

#1114343488
0aaaaa

#1114447816
1aaaaa

#1114656472
0aaaaa

#1114760800
1aaaaa

#1114969456
0aaaaa

#1115282440
1aaaaa

#1115491096
0aaaaa

#1115595424
1aaaaa

